…
#### Sections of the Assignment

Examining the raw data and choosing a task Familiarize yourself with the raw data if you haven’t already. Based on the information available, formulate a task you want to complete and explain what it is. Make it fairly specific, like the tasks above.

``` r
#Read the data
data <- read_csv("CANDY-HIERARCHY-2015 SURVEY-Responses.csv",
                col_types = cols(
                  Timestamp = col_datetime("%m/%d/%Y %H:%M:%S")
                ))
data
```

    ## # A tibble: 5,658 x 124
    ##    Timestamp           `How old are yo~ `Are you going ~ `[Butterfinger]`
    ##    <dttm>              <chr>            <chr>            <chr>           
    ##  1 2015-10-23 08:46:20 35               No               JOY             
    ##  2 2015-10-23 08:46:52 41               No               JOY             
    ##  3 2015-10-23 08:47:34 33               No               DESPAIR         
    ##  4 2015-10-23 08:47:59 31               No               JOY             
    ##  5 2015-10-23 08:48:12 30               No               <NA>            
    ##  6 2015-10-23 08:49:07 38               No               JOY             
    ##  7 2015-10-23 08:50:09 48               No               JOY             
    ##  8 2015-10-23 08:52:14 39               No               DESPAIR         
    ##  9 2015-10-23 08:52:22 9E+22            Yes              DESPAIR         
    ## 10 2015-10-23 08:53:31 54               No               JOY             
    ## # ... with 5,648 more rows, and 120 more variables: `[100 Grand
    ## #   Bar]` <chr>, `[Anonymous brown globs that come in black and orange
    ## #   wrappers]` <chr>, `[Any full-sized candy bar]` <chr>, `[Black
    ## #   Jacks]` <chr>, `[Bonkers]` <chr>, `[Bottle Caps]` <chr>, `[Box’o’
    ## #   Raisins]` <chr>, `[Brach products (not including candy corn)]` <chr>,
    ## #   `[Bubble Gum]` <chr>, `[Cadbury Creme Eggs]` <chr>, `[Candy
    ## #   Corn]` <chr>, `[Vials of pure high fructose corn syrup, for
    ## #   main-lining into your vein]` <chr>, `[Candy that is clearly just the
    ## #   stuff given out for free at restaurants]` <chr>, `[Cash, or other
…
